<?xml version="1.0" encoding="utf-8"?>
<!-- Generator: Adobe Illustrator 23.0.0, SVG Export Plug-In . SVG Version: 6.00 Build 0)  -->
<svg version="1.1" id="Layer_1" xmlns="http://www.w3.org/2000/svg" xmlns:xlink="http://www.w3.org/1999/xlink" x="0px" y="0px"
	 viewBox="0 0 94 38" style="enable-background:new 0 0 94 38;" xml:space="preserve">
<style type="text/css">
	.st0{fill:#FFFFFF;}
	.st1{fill:#12C67C;}
</style>
<g>
	<g>
		<path class="st0" d="M50.77,9.2c0-1.52,0.92-2.31,2.31-2.31c1.39,0,2.31,0.79,2.31,2.31v10.49L60.51,14
			c0.47-0.51,1.07-0.88,1.77-0.88c1.04,0,2.18,0.92,2.18,2.09c0,0.82-0.28,1.07-0.7,1.52l-3.41,3.57l4.8,6.45
			c0.16,0.22,0.47,0.73,0.47,1.48c0,1.17-0.95,2.24-2.18,2.24c-1.14,0-1.74-0.57-2.09-1.07L57,23.23l-1.61,1.42v3.51
			c0,1.52-0.92,2.31-2.31,2.31c-1.39,0-2.31-0.79-2.31-2.31C50.77,28.16,50.77,9.2,50.77,9.2z"/>
		<path class="st0" d="M67.74,15.3c0-1.42,0.66-2.18,2.09-2.18c1.36,0,2.08,0.76,2.08,2.18v0.73h0.06c0.76-1.96,2.62-2.91,4.86-2.91
			c3.85,0,7.24,2.81,7.24,8.78c0,4.42-2.24,8.56-7.11,8.56c-2.12,0-3.7-0.85-4.55-2.34h-0.06v6.16c0,1.52-0.92,2.31-2.31,2.31
			s-2.31-0.79-2.31-2.31V15.3H67.74z M75.79,16.72c-2.69,0-3.7,2.4-3.7,5.02c0,2.37,0.88,5.15,3.7,5.12c2.94,0,3.66-2.97,3.66-5.12
			C79.46,19.03,78.26,16.79,75.79,16.72z"/>
		<path class="st0" d="M89.6,6.77c1.33,0,2.4,1.07,2.4,2.4s-1.07,2.4-2.4,2.4s-2.4-1.07-2.4-2.4C87.2,7.85,88.27,6.77,89.6,6.77z
			 M87.29,15.43c0-1.23,0.51-2.31,2.31-2.31s2.31,1.07,2.31,2.31v12.73c0,1.23-0.51,2.31-2.31,2.31s-2.31-1.07-2.31-2.31V15.43z"/>
	</g>
</g>
<polygon class="st1" points="43.95,7.59 34.59,1.12 34.07,4.81 32.18,4.81 5.17,4.81 4.35,10.66 32.18,10.66 33.25,10.66 
	32.73,14.36 "/>
<polygon class="st1" points="41.61,29.83 32.25,23.35 31.73,27.04 2.05,27.04 1.23,32.89 30.91,32.89 30.39,36.59 "/>
<polygon class="st1" points="20.83,15.93 3.61,15.93 2.79,21.78 20.01,21.78 "/>
</svg>
